%YAML 1.1
%TAG !u! tag:unity3d.com,2011:
--- !u!21 &2100000
Material:
  serializedVersion: 6
  m_ObjectHideFlags: 0
  m_CorrespondingSourceObject: {fileID: 0}
  m_PrefabInstance: {fileID: 0}
  m_PrefabAsset: {fileID: 0}
  m_Name: TeleportAreaVisible
  m_Shader: {fileID: -6465566751694194690, guid: 75496fc9392ef3b45ae860e752005cf9,
    type: 3}
  m_ShaderKeywords: _ALPHAPREMULTIPLY_ON _COLOROVERLAY_ON _RECEIVE_SHADOWS_OFF
  m_LightmapFlags: 6
  m_EnableInstancingVariants: 1
  m_DoubleSidedGI: 0
  m_CustomRenderQueue: -1
  stringTagMap:
    OriginalShader: Standard
  disabledShaderPasses:
  - SHADOWCASTER
  m_SavedProperties:
    serializedVersion: 3
    m_TexEnvs:
    - Texture2D_CF29B40D:
        m_Texture: {fileID: 2800000, guid: f38b091075f93334192390602f433b45, type: 3}
        m_Scale: {x: 1, y: 1}
        m_Offset: {x: 0, y: 0}
    - _BaseMap:
        m_Texture: {fileID: 2800000, guid: f33ccd07f9433f44f8c5430938b168ac, type: 3}
        m_Scale: {x: 1, y: 1}
        m_Offset: {x: 0, y: 0}
    - _BumpMap:
        m_Texture: {fileID: 0}
        m_Scale: {x: 1, y: 1}
        m_Offset: {x: 0, y: 0}
    - _DetailAlbedoMap:
        m_Texture: {fileID: 0}
        m_Scale: {x: 1, y: 1}
        m_Offset: {x: 0, y: 0}
    - _DetailMask:
        m_Texture: {fileID: 0}
        m_Scale: {x: 1, y: 1}
        m_Offset: {x: 0, y: 0}
    - _DetailNormalMap:
        m_Texture: {fileID: 0}
        m_Scale: {x: 1, y: 1}
        m_Offset: {x: 0, y: 0}
    - _EmissionMap:
        m_Texture: {fileID: 0}
        m_Scale: {x: 1, y: 1}
        m_Offset: {x: 0, y: 0}
    - _FalloffTex:
        m_Texture: {fileID: 0}
        m_Scale: {x: 1, y: 1}
        m_Offset: {x: 0, y: 0}
    - _Illum:
        m_Texture: {fileID: 0}
        m_Scale: {x: 1, y: 1}
        m_Offset: {x: 0, y: 0}
    - _MainTex:
        m_Texture: {fileID: 2800000, guid: f33ccd07f9433f44f8c5430938b168ac, type: 3}
        m_Scale: {x: 1, y: 1}
        m_Offset: {x: 0, y: 0}
    - _MetallicGlossMap:
        m_Texture: {fileID: 0}
        m_Scale: {x: 1, y: 1}
        m_Offset: {x: 0, y: 0}
    - _OcclusionMap:
        m_Texture: {fileID: 0}
        m_Scale: {x: 1, y: 1}
        m_Offset: {x: 0, y: 0}
    - _ParallaxMap:
        m_Texture: {fileID: 0}
        m_Scale: {x: 1, y: 1}
        m_Offset: {x: 0, y: 0}
    - _ShadowTex:
        m_Texture: {fileID: 0}
        m_Scale: {x: 1, y: 1}
        m_Offset: {x: 0, y: 0}
    - _SpecGlossMap:
        m_Texture: {fileID: 0}
        m_Scale: {x: 1, y: 1}
        m_Offset: {x: 0, y: 0}
    - g_tOverrideLightmap:
        m_Texture: {fileID: 0}
        m_Scale: {x: 1, y: 1}
        m_Offset: {x: 0, y: 0}
    m_Floats:
    - Vector1_49F216A6: 0.1
    - Vector1_EEEC43B: 3
    - _AlphaClip: 0
    - _Blend: 1
    - _BlendOp: 0
    - _BumpScale: 1
    - _CameraFadingEnabled: 0
    - _CameraFarFadeDistance: 2
    - _CameraNearFadeDistance: 1
    - _ColorMask: 15
    - _ColorMode: 3
    - _Cull: 2
    - _Cutoff: 0.5
    - _Darken: 0.641
    - _DetailNormalMapScale: 1
    - _DistortionBlend: 0.5
    - _DistortionEnabled: 0
    - _DistortionStrength: 1
    - _DistortionStrengthScaled: 0.1
    - _DstBlend: 10
    - _Emission: 0.01
    - _EmissionScaleUI: 0
    - _FlipbookBlending: 0
    - _FlipbookMode: 0
    - _FogMultiplier: 1
    - _Glossiness: 0
    - _Metallic: 0
    - _Mode: 3
    - _OcclusionStrength: 1
    - _OcclusionStrengthDirectDiffuse: 1
    - _OcclusionStrengthDirectSpecular: 1
    - _OcclusionStrengthIndirectDiffuse: 1
    - _OcclusionStrengthIndirectSpecular: 1
    - _Opacity: 1
    - _Parallax: 0.02
    - _QueueOffset: 0
    - _SampleGI: 0
    - _SeeThru: 0.358
    - _Smoothness: 0.5
    - _SmoothnessSource: 0
    - _SoftParticlesEnabled: 0
    - _SoftParticlesFarFadeDistance: 1
    - _SoftParticlesNearFadeDistance: 0
    - _SpecularHighlights: 1
    - _SpecularMode: 2
    - _SrcBlend: 1
    - _Stencil: 0
    - _StencilComp: 8
    - _StencilOp: 0
    - _StencilReadMask: 255
    - _StencilWriteMask: 255
    - _Surface: 1
    - _UVSec: 0
    - _UseColorMap: 0
    - _UseEmissiveMap: 0
    - _UseMetallicMap: 0
    - _UseNormalMap: 0
    - _UseOpacityMap: 0
    - _UseRoughnessMap: 0
    - _ZWrite: 0
    - g_bEnableMetallic: 0
    - g_bReceiveShadows: 1
    - g_bUnlit: 1
    - g_bWorldAlignedTexture: 0
    - g_flCubeMapScalar: 1
    - g_flReflectanceBias: 0
    - g_flReflectanceMax: 1
    - g_flReflectanceMin: 0
    - g_flReflectanceScale: 1
    m_Colors:
    - Color_36822D90: {r: 0.12179867, g: 0.45300543, b: 0.20757887, a: 1}
    - Color_54FF0F66: {r: 2.670157, g: 0.8947125, b: 0, a: 1}
    - Vector2_CF2F184: {r: 1, g: 3, b: 0, a: 0}
    - _BaseColor: {r: 0.26374355, g: 0.6344103, b: 0.834, a: 0.61960787}
    - _BaseColorAddSubDiff: {r: -1, g: 1, b: 0, a: 0}
    - _CameraFadeParams: {r: 0, g: Infinity, b: 0, a: 0}
    - _Color: {r: 0.26374358, g: 0.6344103, b: 0.834, a: 0.61960787}
    - _EmissionColor: {r: 0, g: 0, b: 0, a: 1}
    - _EmissionColorUI: {r: 1, g: 1, b: 1, a: 1}
    - _SoftParticleFadeParams: {r: 0, g: 0, b: 0, a: 0}
    - _SpecColor: {r: 0.2, g: 0.2, b: 0.2, a: 1}
    - _Specular: {r: 0, g: 0, b: 0, a: 0}
    - _TintColor: {r: 0.4392157, g: 0.8235294, b: 1.0352942, a: 0.49019608}
    - _UvOffset: {r: 0, g: 0, b: 0, a: 0}
    - _UvTiling: {r: 1, g: 1, b: 0, a: 0}
    - g_vWorldAlignedNormalTangentU: {r: -1, g: 0, b: 0, a: 0}
    - g_vWorldAlignedNormalTangentV: {r: 0, g: 0, b: 1, a: 0}
    - g_vWorldAlignedTextureNormal: {r: 0, g: 1, b: 0, a: 0}
    - g_vWorldAlignedTexturePosition: {r: 0, g: 0, b: 0, a: 0}
    - g_vWorldAlignedTextureSize: {r: 1, g: 1, b: 1, a: 0}
--- !u!114 &1026760531083610813
MonoBehaviour:
  m_ObjectHideFlags: 11
  m_CorrespondingSourceObject: {fileID: 0}
  m_PrefabInstance: {fileID: 0}
  m_PrefabAsset: {fileID: 0}
  m_GameObject: {fileID: 0}
  m_Enabled: 1
  m_EditorHideFlags: 0
  m_Script: {fileID: 11500000, guid: d0353a89b1f911e48b9e16bdc9f2e058, type: 3}
  m_Name: 
  m_EditorClassIdentifier: 
  version: 1
